C:\Gitlab\canzoni\src\main\java\it\begear\springTopBoot\service\CanzoneService.java
C:\Gitlab\canzoni\src\main\java\it\begear\springTopBoot\entities\Canzone.java
C:\Gitlab\canzoni\src\main\java\it\begear\springTopBoot\entities\User.java
C:\Gitlab\canzoni\src\main\java\it\begear\springTopBoot\controller\CanzoneController.java
C:\Gitlab\canzoni\src\main\java\it\begear\springTopBoot\repository\CanzoneRepo.java
C:\Gitlab\canzoni\src\main\java\it\begear\springTopBoot\Musica.java
